Calculate exact AUCs based on the distribution of risk in a population — auc • bstfun
…
    Value

Returns a list sensitivity and specificity at each cut point, the expected value or
mean risk, and the AUC associated with the distribution.

    Author

    Daniel D Sjoberg

    Examples

auc_density(density = dbeta, shape1 = 1, shape2 = 1)
#> $details
#> # A tibble: 1,001 × 3
#>    threshold sensitivity specificity
#>        <dbl>       <dbl>       <dbl>
#>  1     0            1        0      
#>  2     0.001        1.00     0.00200
#>  3     0.002        1.00     0.00400
#>  4     0.003        1.00     0.00599
#>  5     0.004        1.00     0.00798
#>  6     0.005        1.00     0.00998
#>  7     0.006        1.00     0.0120 
#>  8     0.007        1.00     0.0140 
#>  9     0.008        1.00     0.0159 
#> 10     0.009        1.00     0.0179 
#> # ℹ 991 more rows
…
